<?xml version="1.0" encoding="UTF-8" standalone="no"?>
<!-- Generator: Adobe Illustrator 17.1.0, SVG Export Plug-In . SVG Version: 6.00 Build 0)  -->

<svg
   xmlns:dc="http://purl.org/dc/elements/1.1/"
   xmlns:cc="http://creativecommons.org/ns#"
   xmlns:rdf="http://www.w3.org/1999/02/22-rdf-syntax-ns#"
   xmlns:svg="http://www.w3.org/2000/svg"
   xmlns="http://www.w3.org/2000/svg"
   xmlns:sodipodi="http://sodipodi.sourceforge.net/DTD/sodipodi-0.dtd"
   xmlns:inkscape="http://www.inkscape.org/namespaces/inkscape"
   version="1.1"
   id="Calque_1"
   x="0px"
   y="0px"
   viewBox="0 0 21.3 21.3"
   enable-background="new 0 0 21.3 21.3"
   xml:space="preserve"
   sodipodi:docname="elearning.svg"
   inkscape:version="0.92.3 (2405546, 2018-03-11)"><metadata
   id="metadata19"><rdf:RDF><cc:Work
       rdf:about=""><dc:format>image/svg+xml</dc:format><dc:type
         rdf:resource="http://purl.org/dc/dcmitype/StillImage" /><dc:title></dc:title></cc:Work></rdf:RDF></metadata><defs
   id="defs17" /><sodipodi:namedview
   pagecolor="#ffffff"
   bordercolor="#666666"
   borderopacity="1"
   objecttolerance="10"
   gridtolerance="10"
   guidetolerance="10"
   inkscape:pageopacity="0"
   inkscape:pageshadow="2"
   inkscape:window-width="754"
   inkscape:window-height="480"
   id="namedview15"
   showgrid="false"
   inkscape:zoom="11.079813"
   inkscape:cx="10.65"
   inkscape:cy="10.65"
   inkscape:window-x="67"
   inkscape:window-y="27"
   inkscape:window-maximized="0"
   inkscape:current-layer="Calque_1" />
<g
   id="g12">
	<path
   fill="#010101"
   d="M10.7,21.3C4.8,21.3,0,16.5,0,10.7S4.8,0,10.7,0s10.7,4.8,10.7,10.7S16.5,21.3,10.7,21.3z M10.7,0.5   C5.1,0.5,0.5,5.1,0.5,10.7s4.6,10.2,10.2,10.2s10.2-4.6,10.2-10.2S16.3,0.5,10.7,0.5z"
   id="path2" />
	<g
   id="g8">
		<path
   fill="#010101"
   d="M13.8,6.7h-1.6c-0.6,0-1.2,0.3-1.6,0.8C10.3,7,9.7,6.7,9.1,6.7H7.5c-0.2,0-0.4,0.2-0.4,0.4v4.8    c0,0.2,0.2,0.4,0.4,0.4h2.4c0.2,0,0.4,0.2,0.4,0.4c0,0.2,0.2,0.4,0.4,0.4c0.2,0,0.4-0.2,0.4-0.4c0-0.2,0.2-0.4,0.4-0.4h2.4    c0.2,0,0.4-0.2,0.4-0.4V7.1C14.2,6.9,14,6.7,13.8,6.7L13.8,6.7z M10.3,11.6c-0.1,0-0.3-0.1-0.4-0.1h-2v-4h1.2    c0.7,0,1.2,0.5,1.2,1.2V11.6z M13.4,11.5h-2c-0.1,0-0.3,0-0.4,0.1V8.7c0-0.7,0.5-1.2,1.2-1.2h1.2V11.5z M13.4,11.5"
   id="path4" />
		<path
   fill="#010101"
   d="M16.2,5.1H5.1c-0.7,0-1.2,0.5-1.2,1.2v8.7c0,0.7,0.5,1.2,1.2,1.2h4.1L8.8,17H8.3c-0.2,0-0.4,0.2-0.4,0.4    c0,0.2,0.2,0.4,0.4,0.4c0.7,0,4.2,0,4.8,0c0.2,0,0.4-0.2,0.4-0.4c0-0.2-0.2-0.4-0.4-0.4h-0.5l-0.4-0.8h4.1c0.7,0,1.2-0.5,1.2-1.2    V6.3C17.4,5.7,16.9,5.1,16.2,5.1L16.2,5.1z M9.7,17l0.4-0.8h1.1l0.4,0.8H9.7z M16.6,15.1c0,0.2-0.2,0.4-0.4,0.4H5.1    c-0.2,0-0.4-0.2-0.4-0.4v-0.4h12V15.1z M16.6,13.9h-12V6.3c0-0.2,0.2-0.4,0.4-0.4h11.2c0.2,0,0.4,0.2,0.4,0.4V13.9z M16.6,13.9"
   id="path6" />
	</g>
	<path
   fill="#010101"
   d="M10.7,21.3C4.8,21.3,0,16.5,0,10.7C0,4.8,4.8,0,10.7,0s10.7,4.8,10.7,10.7C21.3,16.5,16.5,21.3,10.7,21.3z    M10.7,0.5C5.1,0.5,0.5,5.1,0.5,10.7s4.6,10.2,10.2,10.2s10.2-4.6,10.2-10.2S16.3,0.5,10.7,0.5z"
   id="path10" />
</g>
</svg>