<?xml version="1.0" encoding="UTF-8" standalone="no"?>
<!-- Generator: Adobe Illustrator 17.1.0, SVG Export Plug-In . SVG Version: 6.00 Build 0)  -->

<svg
   xmlns:dc="http://purl.org/dc/elements/1.1/"
   xmlns:cc="http://creativecommons.org/ns#"
   xmlns:rdf="http://www.w3.org/1999/02/22-rdf-syntax-ns#"
   xmlns:svg="http://www.w3.org/2000/svg"
   xmlns="http://www.w3.org/2000/svg"
   xmlns:xlink="http://www.w3.org/1999/xlink"
   xmlns:sodipodi="http://sodipodi.sourceforge.net/DTD/sodipodi-0.dtd"
   xmlns:inkscape="http://www.inkscape.org/namespaces/inkscape"
   version="1.1"
   id="Calque_1"
   x="0px"
   y="0px"
   viewBox="0 0 20.8 22.5"
   enable-background="new 0 0 20.8 22.5"
   xml:space="preserve"
   sodipodi:docname="vitual.svg"
   inkscape:version="0.92.3 (2405546, 2018-03-11)"><metadata
   id="metadata51"><rdf:RDF><cc:Work
       rdf:about=""><dc:format>image/svg+xml</dc:format><dc:type
         rdf:resource="http://purl.org/dc/dcmitype/StillImage" /><dc:title></dc:title></cc:Work></rdf:RDF></metadata><defs
   id="defs49" /><sodipodi:namedview
   pagecolor="#ffffff"
   bordercolor="#666666"
   borderopacity="1"
   objecttolerance="10"
   gridtolerance="10"
   guidetolerance="10"
   inkscape:pageopacity="0"
   inkscape:pageshadow="2"
   inkscape:window-width="754"
   inkscape:window-height="480"
   id="namedview47"
   showgrid="false"
   inkscape:zoom="10.488889"
   inkscape:cx="10.4"
   inkscape:cy="11.25"
   inkscape:window-x="67"
   inkscape:window-y="27"
   inkscape:window-maximized="0"
   inkscape:current-layer="Calque_1" />
<g
   id="g40">
	<defs
   id="defs3">
		<circle
   id="SVGID_1_"
   cx="10.4"
   cy="10.4"
   r="10.4" />
	</defs>
	<clipPath
   id="SVGID_2_">
		<use
   xlink:href="#SVGID_1_"
   overflow="visible"
   id="use5" />
	</clipPath>
	<g
   clip-path="url(#SVGID_2_)"
   id="g38">
		<g
   id="g26">
			<path
   d="M14.5,16.4c0,0.4-0.3,0.7-0.7,0.7c-0.4,0-0.7-0.3-0.7-0.7c0-0.4,0.3-0.7,0.7-0.7C14.2,15.7,14.5,16.1,14.5,16.4     L14.5,16.4z M14.5,16.4"
   id="path8" />
			<path
   d="M15.5,18.2c0-0.4-0.4-0.8-0.8-0.8c-0.2,0-1.6,0-1.7,0c0.1,0.1,0.1,0.3,0.1,0.5c0,0.2,0,0.4-0.2,0.6     c0.4,0,0.7,0.2,0.9,0.5h0.8v-0.8c0,0,0-0.1,0.1-0.1c0,0,0.1,0,0.1,0.1l0,0.8h0.7L15.5,18.2z M15.5,18.2"
   id="path10" />
			<path
   d="M10.9,17.9c0-0.2,0-0.3,0.1-0.5c-0.5,0-1,0-1.6,0c0.1,0.1,0.1,0.3,0.1,0.5c0,0.2-0.1,0.4-0.2,0.6c0.3,0,0.6,0.1,0.8,0.4     c0.2-0.2,0.5-0.3,0.8-0.3C11,18.2,10.9,18,10.9,17.9L10.9,17.9z M10.9,17.9"
   id="path12" />
			<path
   d="M10.4,15.7c-0.4,0-0.7,0.3-0.7,0.7c0,0.4,0.3,0.7,0.7,0.7c0.4,0,0.7-0.3,0.7-0.7C11.1,16.1,10.8,15.7,10.4,15.7     L10.4,15.7z M10.4,15.7"
   id="path14" />
			<path
   d="M7.5,17.8c0-0.2,0-0.3,0.1-0.5c0,0,0.1,0-1.8,0c-0.4,0-0.8,0.4-0.8,0.8l0,0.8c0.3,0,0.4,0,0.7,0l0-0.8c0,0,0-0.1,0.1-0.1     c0,0,0.1,0,0.1,0.1v0.8h0.9c0.2-0.3,0.6-0.5,0.9-0.5C7.5,18.2,7.5,18,7.5,17.8L7.5,17.8z M7.5,17.8"
   id="path16" />
			<path
   d="M6.6,15.7c-0.4,0-0.7,0.3-0.7,0.7c0,0.4,0.3,0.7,0.7,0.7c0.4,0,0.7-0.3,0.7-0.7C7.3,16.1,7,15.7,6.6,15.7L6.6,15.7z      M6.6,15.7"
   id="path18" />
			<path
   d="M13.7,19.6c0-0.4-0.4-0.8-0.8-0.8c0,0-1.7,0-1.8,0c-0.4,0-0.8,0.4-0.8,0.8l0,0c0-0.4-0.4-0.8-0.8-0.8c-0.5,0-1.2,0-1.8,0     c-0.4,0-0.8,0.4-0.8,0.8l0,2.9h0.7l0-2.9c0,0,0-0.1,0.1-0.1c0,0,0.1,0,0.1,0.1v2.9c0.4,0,1.4,0,1.8,0v-2.9c0,0,0-0.1,0.1-0.1     c0,0,0.1,0,0.1,0.1l0,2.9c0.1,0,1.2,0,1.3,0l0-2.9c0,0,0-0.1,0.1-0.1c0,0,0.1,0,0.1,0.1v2.9c0.4,0,1.4,0,1.8,0v-2.9     c0,0,0-0.1,0.1-0.1c0,0,0.1,0,0.1,0.1l0,2.9h0.7L13.7,19.6z M13.7,19.6"
   id="path20" />
			<path
   d="M9.3,17.8c0,0.4-0.3,0.7-0.7,0.7c-0.4,0-0.7-0.3-0.7-0.7c0-0.4,0.3-0.7,0.7-0.7C9,17.1,9.3,17.4,9.3,17.8L9.3,17.8z      M9.3,17.8"
   id="path22" />
			<path
   d="M12.7,17.8c0,0.4-0.3,0.7-0.7,0.7c-0.4,0-0.7-0.3-0.7-0.7c0-0.4,0.3-0.7,0.7-0.7C12.4,17.1,12.7,17.5,12.7,17.8     L12.7,17.8z M12.7,17.8"
   id="path24" />
		</g>
		<g
   id="g36">
			<g
   id="g32">
				<path
   d="M12.7,8.7"
   id="path28" />
				<path
   d="M14.9,3.5H5.9c-0.5,0-1,0.4-1,1v7.1c0,0.5,0.4,1,1,1h3.4l-0.3,0.6H8.5c-0.2,0-0.3,0.1-0.3,0.3s0.1,0.3,0.3,0.3      c0.6,0,3.4,0,3.9,0c0.2,0,0.3-0.1,0.3-0.3s-0.1-0.3-0.3-0.3h-0.4l-0.3-0.6h3.4c0.5,0,1-0.4,1-1V4.5C15.9,4,15.5,3.5,14.9,3.5      L14.9,3.5z M9.6,13.2l0.3-0.6h0.9l0.3,0.6H9.6z M15.3,11.6c0,0.2-0.1,0.3-0.3,0.3H5.9c-0.2,0-0.3-0.1-0.3-0.3v-0.3h9.7V11.6z       M15.3,10.6H5.6V4.5c0-0.2,0.1-0.3,0.3-0.3h9.1c0.2,0,0.3,0.1,0.3,0.3V10.6z M15.3,10.6"
   id="path30" />
			</g>
			<polygon
   points="9.3,7.7 9.3,6.1 10.6,6.9 11.9,7.7 10.6,8.4 9.3,9.2    "
   id="polygon34" />
		</g>
	</g>
</g>
<path
   fill="#010101"
   d="M10.4,21C4.5,21-0.3,16.3-0.3,10.4S4.5-0.3,10.4-0.3s10.7,4.8,10.7,10.7S16.3,21,10.4,21z M10.4,0.2  C4.8,0.2,0.2,4.8,0.2,10.4s4.6,10.2,10.2,10.2S20.6,16,20.6,10.4S16,0.2,10.4,0.2z"
   id="path42" />
<path
   fill="#010101"
   d="M10.4,21.1c-5.9,0-10.7-4.8-10.7-10.7c0-5.9,4.8-10.7,10.7-10.7s10.7,4.8,10.7,10.7  C21.1,16.3,16.3,21.1,10.4,21.1z M10.4,0.3C4.8,0.3,0.2,4.8,0.2,10.4c0,5.6,4.6,10.2,10.2,10.2S20.6,16,20.6,10.4  C20.6,4.8,16,0.3,10.4,0.3z"
   id="path44" />
</svg>