<?xml version="1.0" encoding="utf-8"?>
<!-- Generator: Adobe Illustrator 24.3.0, SVG Export Plug-In . SVG Version: 6.00 Build 0)  -->
<svg version="1.1" id="Calque_1" xmlns="http://www.w3.org/2000/svg" xmlns:xlink="http://www.w3.org/1999/xlink" x="0px" y="0px"
	 viewBox="0 0 30.33 30.33" style="enable-background:new 0 0 30.33 30.33;" xml:space="preserve">
<style type="text/css">
	.st0{display:none;fill:#FF22FF;}
	.st1{fill:#0076FE;}
</style>
<rect x="0" class="st0" width="30.33" height="30.33"/>
<path class="st1" d="M23.57,14.96L15.5,6.89c-0.19-0.19-0.49-0.19-0.67,0l-8.06,8.06c-0.2,0.2-0.06,0.53,0.22,0.53h2.52v7.79
	c0,0.16,0.13,0.3,0.3,0.3h3.83c0.14,0,0.25-0.11,0.25-0.25v-4.95c0-0.08,0.06-0.14,0.14-0.14h2.21c0.08,0,0.14,0.06,0.14,0.14v4.95
	c0,0.14,0.11,0.25,0.25,0.25h3.86c0.16,0,0.3-0.13,0.3-0.3v-7.79h2.55C23.62,15.49,23.76,15.15,23.57,14.96z M22.31,14.82h-1.52v0
	h-0.43c0,0-0.1,0-0.17,0.08c-0.07,0.07-0.08,0.16-0.08,0.16v0.43h0v7.11c0,0.16-0.12,0.3-0.26,0.3h-2.58
	c-0.12,0-0.22-0.11-0.22-0.25v-4.95c0-0.08-0.06-0.14-0.12-0.14H13.4c-0.07,0-0.12,0.06-0.12,0.14v4.95c0,0.14-0.1,0.25-0.22,0.25
	h-2.63c-0.14,0-0.26-0.13-0.26-0.3v-6.98v-0.13v-0.46c0,0,0-0.09-0.06-0.15c-0.06-0.06-0.16-0.06-0.16-0.06H9.51v0H8.04
	c-0.04,0-0.07-0.05-0.04-0.08l6.88-6.87c0.15-0.15,0.4-0.15,0.55,0l6.9,6.89C22.36,14.78,22.34,14.82,22.31,14.82z"/>
</svg>
